lab5/simulation/qsim/lab5.msim.vcd
$comment
	File created using the following command:
		vcd file lab5.msim.vcd -direction
$end
$date
	Mon Feb 18 15:25:08 2019
$end
$version
	ModelSim Version 10.3d
$end
$timescale
	1ps
$end

$scope module lab5_vlg_vec_tst $end
$var reg 1 ! S0 $end
$var reg 1 " S1 $end
$var reg 1 # S2 $end
$var wire 1 $ A $end
$var wire 1 % sampler $end

$scope module i1 $end
$var wire 1 & gnd $end
$var wire 1 ' vcc $end
$var wire 1 ( unknown $end
$var tri1 1 ) devclrn $end
$var tri1 1 * devpor $end
$var tri1 1 + devoe $end
$var wire 1 , ~QUARTUS_CREATED_GND~I_combout $end
$var wire 1 - S2~input_o $end
$var wire 1 . S0~input_o $end
$var wire 1 / S1~input_o $end
$var wire 1 0 inst11~0_combout $end
$upscope $end
$upscope $end
$enddefinitions $end
#0
$dumpvars
0!
0"
0#
1$
x%
0&
1'
x(
1)
1*
1+
0,
0-
0.
0/
00
$end
#10000
1!
1.
0%
10
0$
#20000
1"
0!
1/
0.
1%
00
1$
#30000
1!
1.
0%
10
0$
#40000
1#
0"
0!
1-
0/
0.
1%
00
1$
#50000
1!
1.
0%
#60000
1"
0!
1/
0.
1%
10
0$
#70000
1!
1.
0%
